<?xml version="1.0" encoding="UTF-8" standalone="no"?>
<svg
   xmlns:dc="http://purl.org/dc/elements/1.1/"
   xmlns:cc="http://creativecommons.org/ns#"
   xmlns:rdf="http://www.w3.org/1999/02/22-rdf-syntax-ns#"
   xmlns:svg="http://www.w3.org/2000/svg"
   xmlns="http://www.w3.org/2000/svg"
   xmlns:xlink="http://www.w3.org/1999/xlink"
   viewBox="0 0 27.895735 27.895734"
   height="27.895735"
   width="27.895735"
   id="svg5150"
   version="1.1">
  <metadata
     id="metadata5156">
    <rdf:RDF>
      <cc:Work
         rdf:about="">
        <dc:format>image/svg+xml</dc:format>
        <dc:type
           rdf:resource="http://purl.org/dc/dcmitype/StillImage" />
        <dc:title></dc:title>
      </cc:Work>
    </rdf:RDF>
  </metadata>
  <defs
     id="defs5154">
    <linearGradient
       id="linearGradient5737">
      <stop
         id="stop5733"
         offset="0"
         style="stop-color:#e26f21;stop-opacity:1" />
      <stop
         style="stop-color:#df6c1d;stop-opacity:1"
         offset="0.47356337"
         id="stop5749" />
      <stop
         style="stop-color:#c6651c;stop-opacity:1"
         offset="0.51557642"
         id="stop5747" />
      <stop
         id="stop5735"
         offset="1"
         style="stop-color:#d86214;stop-opacity:1" />
    </linearGradient>
    <linearGradient
       gradientTransform="matrix(0.15901255,0,0,0.20401717,52.909233,-147.13422)"
       gradientUnits="userSpaceOnUse"
       y2="510.7345"
       x2="-422.59891"
       y1="509.60455"
       x1="-612.42944"
       id="linearGradient5739"
       xlink:href="#linearGradient5737" />
  </defs>
  <rect
     rx="3.4516788"
     y="-50.081955"
     x="-50.404003"
     height="13.140089"
     width="41.504974"
     id="rect5721"
     style="fill:url(#linearGradient5739);fill-opacity:1;stroke:#f7a54e;stroke-width:1.42264855;stroke-miterlimit:4;stroke-dasharray:none;stroke-opacity:1" />
  <circle
     r="11.150046"
     cy="13.947867"
     cx="13.947867"
     id="path5771"
     style="fill:none;fill-opacity:1;stroke:#161616;stroke-width:5.59564161;stroke-miterlimit:4;stroke-dasharray:none;stroke-opacity:1" />
  <path
     id="path5786"
     d="M 13.720296,3.0253915 14.40295,24.75663 v 0 z"
     style="fill:none;stroke:#161616;stroke-width:1.84350705;stroke-linecap:round;stroke-linejoin:miter;stroke-miterlimit:4;stroke-dasharray:none;stroke-opacity:1" />
  <path
     id="path5786-0-7"
     d="M 23.681545,18.95407 4.4417119,8.8279015 v 0 z"
     style="fill:none;stroke:#161616;stroke-width:1.84350705;stroke-linecap:round;stroke-linejoin:miter;stroke-miterlimit:4;stroke-dasharray:none;stroke-opacity:1" />
  <path
     id="path5786-0-7-6"
     d="M 22.897431,7.5580515 5.2258139,20.22395 v 0 z"
     style="fill:none;stroke:#161616;stroke-width:1.84350705;stroke-linecap:round;stroke-linejoin:miter;stroke-miterlimit:4;stroke-dasharray:none;stroke-opacity:1" />
  <rect
     y="-79.161026"
     x="-40.717655"
     height="28.412897"
     width="23.385841"
     id="rect5891"
     style="fill:#675d5d;fill-opacity:1;stroke:none;stroke-width:7.05412912;stroke-linecap:round;stroke-miterlimit:4;stroke-dasharray:none;stroke-opacity:1" />
  <rect
     y="-82.731918"
     x="-40.717655"
     height="3.5708916"
     width="23.385841"
     id="rect5898"
     style="fill:#930000;fill-opacity:1;stroke:none;stroke-width:1.67238092;stroke-linecap:round;stroke-miterlimit:4;stroke-dasharray:none;stroke-opacity:1" />
</svg>
